// Jest Snapshot v1, https://goo.gl/fbAQLP

exports[`About 1`] = `ShallowWrapper {}`;

exports[`Card clickCard() Test 1`] = `[Function]`;

exports[`CardTest 1`] = `ShallowWrapper {}`;

exports[`CityList 1`] = `ShallowWrapper {}`;

exports[`NavBarTest 1`] = `ShallowWrapper {}`;

exports[`PlayerList 1`] = `ShallowWrapper {}`;

exports[`SplashTest 1`] = `ShallowWrapper {}`;

exports[`TeamList 1`] = `ShallowWrapper {}`;
